-- Merging decision tree log ---
manifest
ADDED from /home/ashok/Documents/mrunalwork/giphy-demo/android/app/src/main/AndroidManifest.xml:1:1-26:12
INJECTED from /home/ashok/Documents/mrunalwork/giphy-demo/android/app/src/main/AndroidManifest.xml:1:1-26:12
INJECTED from /home/ashok/Documents/mrunalwork/giphy-demo/android/app/src/main/AndroidManifest.xml:1:1-26:12
INJECTED from /home/ashok/Documents/mrunalwork/giphy-demo/android/app/src/main/AndroidManifest.xml:1:1-26:12
MERGED from /home/ashok/Documents/mrunalwork/giphy-demo/android/app/src/main/AndroidManifest.xml:1:1-26:12
MERGED from [:react-native-community_masked-view] /home/ashok/Documents/mrunalwork/giphy-demo/node_modules/@react-native-community/masked-view/android/build/intermediates/library_manifest/debug/AndroidManifest.xml:2:1-9:12
MERGED from [:react-native-gesture-handler] /home/ashok/Documents/mrunalwork/giphy-demo/node_modules/react-native-gesture-handler/android/build/intermediates/library_manifest/debug/AndroidManifest.xml:2:1-11:12
MERGED from [:react-native-safe-area-context] /home/ashok/Documents/mrunalwork/giphy-demo/node_modules/react-native-safe-area-context/android/build/intermediates/library_manifest/debug/AndroidManifest.xml:2:1-9:12
MERGED from [:react-native-screens] /home/ashok/Documents/mrunalwork/giphy-demo/node_modules/react-native-screens/android/build/intermediates/library_manifest/debug/AndroidManifest.xml:2:1-11:12
MERGED from [:react-native-vector-icons] /home/ashok/Documents/mrunalwork/giphy-demo/node_modules/react-native-vector-icons/android/build/intermediates/library_manifest/debug/AndroidManifest.xml:2:1-11:12
MERGED from [com.facebook.react:react-native:0.61.5] /home/ashok/.gradle/caches/transforms-2/files-2.1/3d3d6a0955162aa9663f5dfe629b5eea/AndroidManifest.xml:2:1-13:12
MERGED from [com.facebook.fresco:animated-gif:2.0.0] /home/ashok/.gradle/caches/transforms-2/files-2.1/d38333159625886fd8da337b2b10e14c/AndroidManifest.xml:2:1-9:12
MERGED from [com.facebook.fresco:animated-webp:2.0.0] /home/ashok/.gradle/caches/transforms-2/files-2.1/d868960ba56bb11ce914bd02d2516cab/AndroidManifest.xml:2:1-9:12
MERGED from [com.facebook.fresco:webpsupport:2.0.0] /home/ashok/.gradle/caches/transforms-2/files-2.1/b2d548facba76cb420ffb4fe9f6bbea0/AndroidManifest.xml:2:1-9:12
MERGED from [org.webkit:android-jsc:r245459] /home/ashok/.gradle/caches/transforms-2/files-2.1/e82ef360b9a37f0551cf25a86d7ee792/AndroidManifest.xml:2:1-11:12
MERGED from [com.google.android.material:material:1.0.0] /home/ashok/.gradle/caches/transforms-2/files-2.1/e36ec65c29059415281f41115e1182a0/AndroidManifest.xml:17:1-24:12
MERGED from [androidx.appcompat:appcompat:1.1.0] /home/ashok/.gradle/caches/transforms-2/files-2.1/629d1ab19706236f446a245013f01c75/AndroidManifest.xml:17:1-24:12
MERGED from [com.facebook.fresco:fresco:2.0.0] /home/ashok/.gradle/caches/transforms-2/files-2.1/73912cb35eb8373c742421915bb431aa/AndroidManifest.xml:2:1-9:12
MERGED from [com.facebook.fresco:imagepipeline-okhttp3:2.0.0] /home/ashok/.gradle/caches/transforms-2/files-2.1/b34d0442ae80bf49d86e5c5433d6d54e/AndroidManifest.xml:2:1-9:12
MERGED from [com.facebook.fresco:animated-base:2.0.0] /home/ashok/.gradle/caches/transforms-2/files-2.1/72e239b1ecd1a14c180a4578c073c5ec/AndroidManifest.xml:2:1-9:12
MERGED from [com.facebook.fresco:animated-drawable:2.0.0] /home/ashok/.gradle/caches/transforms-2/files-2.1/f260098a10f51f565c29c59fdf0839d6/AndroidManifest.xml:2:1-9:12
MERGED from [com.facebook.fresco:drawee:2.0.0] /home/ashok/.gradle/caches/transforms-2/files-2.1/5cfd3a934f55df6b454c9bc9239cc589/AndroidManifest.xml:2:1-9:12
MERGED from [com.facebook.fresco:nativeimagefilters:2.0.0] /home/ashok/.gradle/caches/transforms-2/files-2.1/361a02530ffd97955cfc35342f885a19/AndroidManifest.xml:2:1-9:12
MERGED from [com.facebook.fresco:imagepipeline:2.0.0] /home/ashok/.gradle/caches/transforms-2/files-2.1/d4d0d0f3ee61dc3076c28fd6a41c42a2/AndroidManifest.xml:2:1-9:12
MERGED from [com.facebook.fresco:nativeimagetranscoder:2.0.0] /home/ashok/.gradle/caches/transforms-2/files-2.1/68e9eba7aba68aac3962628caed88441/AndroidManifest.xml:2:1-9:12
MERGED from [com.facebook.fresco:imagepipeline-base:2.0.0] /home/ashok/.gradle/caches/transforms-2/files-2.1/eb49e24fc2c5a7f318e1f14042e2270d/AndroidManifest.xml:2:1-9:12
MERGED from [com.facebook.soloader:soloader:0.6.0] /home/ashok/.gradle/caches/transforms-2/files-2.1/fed405e112db2173db441fd0f9ca236a/AndroidManifest.xml:2:1-13:12
MERGED from [com.facebook.fresco:fbcore:2.0.0] /home/ashok/.gradle/caches/transforms-2/files-2.1/287e078d634f64a02db3aae9768c3668/AndroidManifest.xml:2:1-9:12
MERGED from [androidx.recyclerview:recyclerview:1.0.0] /home/ashok/.gradle/caches/transforms-2/files-2.1/78e7016bc053784315797c9acd9833be/AndroidManifest.xml:17:1-22:12
MERGED from [androidx.legacy:legacy-support-core-ui:1.0.0] /home/ashok/.gradle/caches/transforms-2/files-2.1/9d3eca9261655cebb0bfb6cf7fcbf99b/AndroidManifest.xml:17:1-22:12
MERGED from [androidx.coordinatorlayout:coordinatorlayout:1.0.0] /home/ashok/.gradle/caches/transforms-2/files-2.1/a061277c1a97673e24686f2d515d4c50/AndroidManifest.xml:17:1-22:12
MERGED from [androidx.fragment:fragment:1.1.0] /home/ashok/.gradle/caches/transforms-2/files-2.1/b5a5a4ef906990f205bf73e2814f766c/AndroidManifest.xml:17:1-24:12
MERGED from [androidx.appcompat:appcompat-resources:1.1.0] /home/ashok/.gradle/caches/transforms-2/files-2.1/86652dfba4bf4ae8be819779aeb82c84/AndroidManifest.xml:17:1-24:12
MERGED from [androidx.drawerlayout:drawerlayout:1.0.0] /home/ashok/.gradle/caches/transforms-2/files-2.1/f7f11468e9d9fe9e54ece7ff9b614c39/AndroidManifest.xml:17:1-22:12
MERGED from [androidx.viewpager:viewpager:1.0.0] /home/ashok/.gradle/caches/transforms-2/files-2.1/221e9c6c04830e4a3fbe87a950ff9fd2/AndroidManifest.xml:17:1-22:12
MERGED from [androidx.slidingpanelayout:slidingpanelayout:1.0.0] /home/ashok/.gradle/caches/transforms-2/files-2.1/18093969b9fdc7ae3e5115dc124a2236/AndroidManifest.xml:17:1-22:12
MERGED from [androidx.customview:customview:1.0.0] /home/ashok/.gradle/caches/transforms-2/files-2.1/3b7e498d08e3909fc436e60b340aed18/AndroidManifest.xml:17:1-22:12
MERGED from [androidx.legacy:legacy-support-core-utils:1.0.0] /home/ashok/.gradle/caches/transforms-2/files-2.1/0494478bac380fe4834d06045fa2f8f1/AndroidManifest.xml:17:1-22:12
MERGED from [androidx.transition:transition:1.0.0] /home/ashok/.gradle/caches/transforms-2/files-2.1/603d00d036076c94533466b817053963/AndroidManifest.xml:17:1-22:12
MERGED from [androidx.loader:loader:1.0.0] /home/ashok/.gradle/caches/transforms-2/files-2.1/dfa685b6b67a0fb23a6e18ae85e25345/AndroidManifest.xml:17:1-22:12
MERGED from [androidx.activity:activity:1.0.0] /home/ashok/.gradle/caches/transforms-2/files-2.1/36a36f52dc821629b277f1f8fd532488/AndroidManifest.xml:17:1-24:12
MERGED from [androidx.vectordrawable:vectordrawable-animated:1.1.0] /home/ashok/.gradle/caches/transforms-2/files-2.1/b519f22660ed050343b3acec5d4fc9cb/AndroidManifest.xml:17:1-24:12
MERGED from [androidx.vectordrawable:vectordrawable:1.1.0] /home/ashok/.gradle/caches/transforms-2/files-2.1/db997f525d72d91be759aa78509dabb7/AndroidManifest.xml:17:1-24:12
MERGED from [androidx.swiperefreshlayout:swiperefreshlayout:1.0.0] /home/ashok/.gradle/caches/transforms-2/files-2.1/48521c4c99b838b50cfbf78bfbaa521e/AndroidManifest.xml:17:1-22:12
MERGED from [androidx.asynclayoutinflater:asynclayoutinflater:1.0.0] /home/ashok/.gradle/caches/transforms-2/files-2.1/b98e9c16774d4d319880800d55978d1f/AndroidManifest.xml:17:1-22:12
MERGED from [androidx.core:core:1.1.0] /home/ashok/.gradle/caches/transforms-2/files-2.1/c6269447438be640c65b2574db6bfcde/AndroidManifest.xml:17:1-26:12
MERGED from [androidx.cursoradapter:cursoradapter:1.0.0] /home/ashok/.gradle/caches/transforms-2/files-2.1/f89c03a5ceae21e89fd5bc7f1cf32c63/AndroidManifest.xml:17:1-22:12
MERGED from [androidx.cardview:cardview:1.0.0] /home/ashok/.gradle/caches/transforms-2/files-2.1/249fc499ae7a4d9f7ffbc19e3f35ff95/AndroidManifest.xml:17:1-22:12
MERGED from [androidx.versionedparcelable:versionedparcelable:1.1.0] /home/ashok/.gradle/caches/transforms-2/files-2.1/8581e5b86e944c7924af56b127167599/AndroidManifest.xml:17:1-27:12
MERGED from [androidx.interpolator:interpolator:1.0.0] /home/ashok/.gradle/caches/transforms-2/files-2.1/a38e4d6222ca442d8f181bc29aa7da2e/AndroidManifest.xml:17:1-22:12
MERGED from [androidx.documentfile:documentfile:1.0.0] /home/ashok/.gradle/caches/transforms-2/files-2.1/8c90ed3d9cb92ccd8f4191ee3bc4a47e/AndroidManifest.xml:17:1-22:12
MERGED from [androidx.localbroadcastmanager:localbroadcastmanager:1.0.0] /home/ashok/.gradle/caches/transforms-2/files-2.1/b9a0243011d6e8da64f54cf39bf668e4/AndroidManifest.xml:17:1-22:12
MERGED from [androidx.print:print:1.0.0] /home/ashok/.gradle/caches/transforms-2/files-2.1/e376fd76488c538ab34996681b9e916c/AndroidManifest.xml:17:1-22:12
MERGED from [androidx.lifecycle:lifecycle-runtime:2.1.0] /home/ashok/.gradle/caches/transforms-2/files-2.1/9dd7a686597af0cb91df4cd3138796e2/AndroidManifest.xml:17:1-22:12
MERGED from [androidx.lifecycle:lifecycle-viewmodel:2.1.0] /home/ashok/.gradle/caches/transforms-2/files-2.1/354e87983eef3b14ae51e801e6b724ca/AndroidManifest.xml:17:1-22:12
MERGED from [androidx.savedstate:savedstate:1.0.0] /home/ashok/.gradle/caches/transforms-2/files-2.1/f0f7851045ddb7f9e828c226f18f8e1b/AndroidManifest.xml:17:1-24:12
MERGED from [androidx.lifecycle:lifecycle-livedata:2.0.0] /home/ashok/.gradle/caches/transforms-2/files-2.1/0e5e1c6559726908357093df15051898/AndroidManifest.xml:17:1-22:12
MERGED from [androidx.lifecycle:lifecycle-livedata-core:2.0.0] /home/ashok/.gradle/caches/transforms-2/files-2.1/3bdfedfdff62f963c82c55a0892128a8/AndroidManifest.xml:17:1-22:12
MERGED from [androidx.arch.core:core-runtime:2.0.0] /home/ashok/.gradle/caches/transforms-2/files-2.1/58896f4eb8583f71fbedb390224704cd/AndroidManifest.xml:17:1-22:12
INJECTED from /home/ashok/Documents/mrunalwork/giphy-demo/android/app/src/debug/AndroidManifest.xml:2:1-8:12
INJECTED from /home/ashok/Documents/mrunalwork/giphy-demo/android/app/src/debug/AndroidManifest.xml:2:1-8:12
INJECTED from /home/ashok/Documents/mrunalwork/giphy-demo/android/app/src/debug/AndroidManifest.xml:2:1-8:12
	package
		ADDED from /home/ashok/Documents/mrunalwork/giphy-demo/android/app/src/main/AndroidManifest.xml:2:3-26
		INJECTED from /home/ashok/Documents/mrunalwork/giphy-demo/android/app/src/main/AndroidManifest.xml
		ADDED from /home/ashok/Documents/mrunalwork/giphy-demo/android/app/src/main/AndroidManifest.xml:2:3-26
		INJECTED from /home/ashok/Documents/mrunalwork/giphy-demo/android/app/src/debug/AndroidManifest.xml
	android:versionName
		INJECTED from /home/ashok/Documents/mrunalwork/giphy-demo/android/app/src/main/AndroidManifest.xml
		ADDED from /home/ashok/Documents/mrunalwork/giphy-demo/android/app/src/main/AndroidManifest.xml:1:1-26:12
		INJECTED from /home/ashok/Documents/mrunalwork/giphy-demo/android/app/src/debug/AndroidManifest.xml
	xmlns:tools
		ADDED from /home/ashok/Documents/mrunalwork/giphy-demo/android/app/src/debug/AndroidManifest.xml:3:5-51
	android:versionCode
		INJECTED from /home/ashok/Documents/mrunalwork/giphy-demo/android/app/src/main/AndroidManifest.xml
		ADDED from /home/ashok/Documents/mrunalwork/giphy-demo/android/app/src/main/AndroidManifest.xml:1:1-26:12
		INJECTED from /home/ashok/Documents/mrunalwork/giphy-demo/android/app/src/debug/AndroidManifest.xml
	xmlns:android
		ADDED from /home/ashok/Documents/mrunalwork/giphy-demo/android/app/src/main/AndroidManifest.xml:1:11-69
uses-permission#android.permission.INTERNET
ADDED from /home/ashok/Documents/mrunalwork/giphy-demo/android/app/src/main/AndroidManifest.xml:4:5-67
	android:name
		ADDED from /home/ashok/Documents/mrunalwork/giphy-demo/android/app/src/main/AndroidManifest.xml:4:22-64
application
ADDED from /home/ashok/Documents/mrunalwork/giphy-demo/android/app/src/main/AndroidManifest.xml:6:5-24:19
MERGED from /home/ashok/Documents/mrunalwork/giphy-demo/android/app/src/main/AndroidManifest.xml:6:5-24:19
MERGED from /home/ashok/Documents/mrunalwork/giphy-demo/android/app/src/main/AndroidManifest.xml:6:5-24:19
MERGED from [com.facebook.react:react-native:0.61.5] /home/ashok/.gradle/caches/transforms-2/files-2.1/3d3d6a0955162aa9663f5dfe629b5eea/AndroidManifest.xml:11:5-20
MERGED from [com.facebook.react:react-native:0.61.5] /home/ashok/.gradle/caches/transforms-2/files-2.1/3d3d6a0955162aa9663f5dfe629b5eea/AndroidManifest.xml:11:5-20
MERGED from [com.google.android.material:material:1.0.0] /home/ashok/.gradle/caches/transforms-2/files-2.1/e36ec65c29059415281f41115e1182a0/AndroidManifest.xml:22:5-20
MERGED from [com.google.android.material:material:1.0.0] /home/ashok/.gradle/caches/transforms-2/files-2.1/e36ec65c29059415281f41115e1182a0/AndroidManifest.xml:22:5-20
MERGED from [com.facebook.soloader:soloader:0.6.0] /home/ashok/.gradle/caches/transforms-2/files-2.1/fed405e112db2173db441fd0f9ca236a/AndroidManifest.xml:11:5-20
MERGED from [com.facebook.soloader:soloader:0.6.0] /home/ashok/.gradle/caches/transforms-2/files-2.1/fed405e112db2173db441fd0f9ca236a/AndroidManifest.xml:11:5-20
MERGED from [androidx.core:core:1.1.0] /home/ashok/.gradle/caches/transforms-2/files-2.1/c6269447438be640c65b2574db6bfcde/AndroidManifest.xml:24:5-89
MERGED from [androidx.core:core:1.1.0] /home/ashok/.gradle/caches/transforms-2/files-2.1/c6269447438be640c65b2574db6bfcde/AndroidManifest.xml:24:5-89
MERGED from [androidx.versionedparcelable:versionedparcelable:1.1.0] /home/ashok/.gradle/caches/transforms-2/files-2.1/8581e5b86e944c7924af56b127167599/AndroidManifest.xml:24:5-25:19
MERGED from [androidx.versionedparcelable:versionedparcelable:1.1.0] /home/ashok/.gradle/caches/transforms-2/files-2.1/8581e5b86e944c7924af56b127167599/AndroidManifest.xml:24:5-25:19
	android:appComponentFactory
		ADDED from [androidx.core:core:1.1.0] /home/ashok/.gradle/caches/transforms-2/files-2.1/c6269447438be640c65b2574db6bfcde/AndroidManifest.xml:24:18-86
	android:label
		ADDED from /home/ashok/Documents/mrunalwork/giphy-demo/android/app/src/main/AndroidManifest.xml:8:7-39
		ADDED from /home/ashok/Documents/mrunalwork/giphy-demo/android/app/src/main/AndroidManifest.xml:8:7-39
	tools:ignore
		ADDED from /home/ashok/Documents/mrunalwork/giphy-demo/android/app/src/debug/AndroidManifest.xml:7:75-114
	android:roundIcon
		ADDED from /home/ashok/Documents/mrunalwork/giphy-demo/android/app/src/main/AndroidManifest.xml:10:7-52
		ADDED from /home/ashok/Documents/mrunalwork/giphy-demo/android/app/src/main/AndroidManifest.xml:10:7-52
	tools:targetApi
		ADDED from /home/ashok/Documents/mrunalwork/giphy-demo/android/app/src/debug/AndroidManifest.xml:7:54-74
	android:icon
		ADDED from /home/ashok/Documents/mrunalwork/giphy-demo/android/app/src/main/AndroidManifest.xml:9:7-41
		ADDED from /home/ashok/Documents/mrunalwork/giphy-demo/android/app/src/main/AndroidManifest.xml:9:7-41
	android:allowBackup
		ADDED from /home/ashok/Documents/mrunalwork/giphy-demo/android/app/src/main/AndroidManifest.xml:11:7-34
		ADDED from /home/ashok/Documents/mrunalwork/giphy-demo/android/app/src/main/AndroidManifest.xml:11:7-34
	android:theme
		ADDED from /home/ashok/Documents/mrunalwork/giphy-demo/android/app/src/main/AndroidManifest.xml:12:7-38
		ADDED from /home/ashok/Documents/mrunalwork/giphy-demo/android/app/src/main/AndroidManifest.xml:12:7-38
	android:usesCleartextTraffic
		ADDED from /home/ashok/Documents/mrunalwork/giphy-demo/android/app/src/debug/AndroidManifest.xml:7:18-53
	android:name
		ADDED from /home/ashok/Documents/mrunalwork/giphy-demo/android/app/src/main/AndroidManifest.xml:7:7-38
		ADDED from /home/ashok/Documents/mrunalwork/giphy-demo/android/app/src/main/AndroidManifest.xml:7:7-38
activity#com.reactdemo.MainActivity
ADDED from /home/ashok/Documents/mrunalwork/giphy-demo/android/app/src/main/AndroidManifest.xml:13:7-22:18
	android:label
		ADDED from /home/ashok/Documents/mrunalwork/giphy-demo/android/app/src/main/AndroidManifest.xml:15:9-41
	android:windowSoftInputMode
		ADDED from /home/ashok/Documents/mrunalwork/giphy-demo/android/app/src/main/AndroidManifest.xml:17:9-51
	android:configChanges
		ADDED from /home/ashok/Documents/mrunalwork/giphy-demo/android/app/src/main/AndroidManifest.xml:16:9-79
	android:name
		ADDED from /home/ashok/Documents/mrunalwork/giphy-demo/android/app/src/main/AndroidManifest.xml:14:9-37
intent-filter#action:name:android.intent.action.MAIN+category:name:android.intent.category.LAUNCHER
ADDED from /home/ashok/Documents/mrunalwork/giphy-demo/android/app/src/main/AndroidManifest.xml:18:9-21:25
action#android.intent.action.MAIN
ADDED from /home/ashok/Documents/mrunalwork/giphy-demo/android/app/src/main/AndroidManifest.xml:19:13-65
	android:name
		ADDED from /home/ashok/Documents/mrunalwork/giphy-demo/android/app/src/main/AndroidManifest.xml:19:21-62
category#android.intent.category.LAUNCHER
ADDED from /home/ashok/Documents/mrunalwork/giphy-demo/android/app/src/main/AndroidManifest.xml:20:13-73
	android:name
		ADDED from /home/ashok/Documents/mrunalwork/giphy-demo/android/app/src/main/AndroidManifest.xml:20:23-70
activity#com.facebook.react.devsupport.DevSettingsActivity
ADDED from /home/ashok/Documents/mrunalwork/giphy-demo/android/app/src/main/AndroidManifest.xml:23:7-84
	android:name
		ADDED from /home/ashok/Documents/mrunalwork/giphy-demo/android/app/src/main/AndroidManifest.xml:23:17-81
uses-sdk
INJECTED from /home/ashok/Documents/mrunalwork/giphy-demo/android/app/src/main/AndroidManifest.xml reason: use-sdk injection requested
INJECTED from /home/ashok/Documents/mrunalwork/giphy-demo/android/app/src/main/AndroidManifest.xml
INJECTED from /home/ashok/Documents/mrunalwork/giphy-demo/android/app/src/main/AndroidManifest.xml
MERGED from [:react-native-community_masked-view] /home/ashok/Documents/mrunalwork/giphy-demo/node_modules/@react-native-community/masked-view/android/build/intermediates/library_manifest/debug/AndroidManifest.xml:5:5-7:41
MERGED from [:react-native-community_masked-view] /home/ashok/Documents/mrunalwork/giphy-demo/node_modules/@react-native-community/masked-view/android/build/intermediates/library_manifest/debug/AndroidManifest.xml:5:5-7:41
MERGED from [:react-native-gesture-handler] /home/ashok/Documents/mrunalwork/giphy-demo/node_modules/react-native-gesture-handler/android/build/intermediates/library_manifest/debug/AndroidManifest.xml:7:5-9:41
MERGED from [:react-native-gesture-handler] /home/ashok/Documents/mrunalwork/giphy-demo/node_modules/react-native-gesture-handler/android/build/intermediates/library_manifest/debug/AndroidManifest.xml:7:5-9:41
MERGED from [:react-native-safe-area-context] /home/ashok/Documents/mrunalwork/giphy-demo/node_modules/react-native-safe-area-context/android/build/intermediates/library_manifest/debug/AndroidManifest.xml:5:5-7:41
MERGED from [:react-native-safe-area-context] /home/ashok/Documents/mrunalwork/giphy-demo/node_modules/react-native-safe-area-context/android/build/intermediates/library_manifest/debug/AndroidManifest.xml:5:5-7:41
MERGED from [:react-native-screens] /home/ashok/Documents/mrunalwork/giphy-demo/node_modules/react-native-screens/android/build/intermediates/library_manifest/debug/AndroidManifest.xml:7:5-9:41
MERGED from [:react-native-screens] /home/ashok/Documents/mrunalwork/giphy-demo/node_modules/react-native-screens/android/build/intermediates/library_manifest/debug/AndroidManifest.xml:7:5-9:41
MERGED from [:react-native-vector-icons] /home/ashok/Documents/mrunalwork/giphy-demo/node_modules/react-native-vector-icons/android/build/intermediates/library_manifest/debug/AndroidManifest.xml:7:5-9:41
MERGED from [:react-native-vector-icons] /home/ashok/Documents/mrunalwork/giphy-demo/node_modules/react-native-vector-icons/android/build/intermediates/library_manifest/debug/AndroidManifest.xml:7:5-9:41
MERGED from [com.facebook.react:react-native:0.61.5] /home/ashok/.gradle/caches/transforms-2/files-2.1/3d3d6a0955162aa9663f5dfe629b5eea/AndroidManifest.xml:7:5-9:41
MERGED from [com.facebook.react:react-native:0.61.5] /home/ashok/.gradle/caches/transforms-2/files-2.1/3d3d6a0955162aa9663f5dfe629b5eea/AndroidManifest.xml:7:5-9:41
MERGED from [com.facebook.fresco:animated-gif:2.0.0] /home/ashok/.gradle/caches/transforms-2/files-2.1/d38333159625886fd8da337b2b10e14c/AndroidManifest.xml:5:5-7:41
MERGED from [com.facebook.fresco:animated-gif:2.0.0] /home/ashok/.gradle/caches/transforms-2/files-2.1/d38333159625886fd8da337b2b10e14c/AndroidManifest.xml:5:5-7:41
MERGED from [com.facebook.fresco:animated-webp:2.0.0] /home/ashok/.gradle/caches/transforms-2/files-2.1/d868960ba56bb11ce914bd02d2516cab/AndroidManifest.xml:5:5-7:41
MERGED from [com.facebook.fresco:animated-webp:2.0.0] /home/ashok/.gradle/caches/transforms-2/files-2.1/d868960ba56bb11ce914bd02d2516cab/AndroidManifest.xml:5:5-7:41
MERGED from [com.facebook.fresco:webpsupport:2.0.0] /home/ashok/.gradle/caches/transforms-2/files-2.1/b2d548facba76cb420ffb4fe9f6bbea0/AndroidManifest.xml:5:5-7:41
MERGED from [com.facebook.fresco:webpsupport:2.0.0] /home/ashok/.gradle/caches/transforms-2/files-2.1/b2d548facba76cb420ffb4fe9f6bbea0/AndroidManifest.xml:5:5-7:41
MERGED from [org.webkit:android-jsc:r245459] /home/ashok/.gradle/caches/transforms-2/files-2.1/e82ef360b9a37f0551cf25a86d7ee792/AndroidManifest.xml:7:5-9:41
MERGED from [org.webkit:android-jsc:r245459] /home/ashok/.gradle/caches/transforms-2/files-2.1/e82ef360b9a37f0551cf25a86d7ee792/AndroidManifest.xml:7:5-9:41
MERGED from [com.google.android.material:material:1.0.0] /home/ashok/.gradle/caches/transforms-2/files-2.1/e36ec65c29059415281f41115e1182a0/AndroidManifest.xml:20:5-44
MERGED from [com.google.android.material:material:1.0.0] /home/ashok/.gradle/caches/transforms-2/files-2.1/e36ec65c29059415281f41115e1182a0/AndroidManifest.xml:20:5-44
MERGED from [androidx.appcompat:appcompat:1.1.0] /home/ashok/.gradle/caches/transforms-2/files-2.1/629d1ab19706236f446a245013f01c75/AndroidManifest.xml:20:5-22:41
MERGED from [androidx.appcompat:appcompat:1.1.0] /home/ashok/.gradle/caches/transforms-2/files-2.1/629d1ab19706236f446a245013f01c75/AndroidManifest.xml:20:5-22:41
MERGED from [com.facebook.fresco:fresco:2.0.0] /home/ashok/.gradle/caches/transforms-2/files-2.1/73912cb35eb8373c742421915bb431aa/AndroidManifest.xml:5:5-7:41
MERGED from [com.facebook.fresco:fresco:2.0.0] /home/ashok/.gradle/caches/transforms-2/files-2.1/73912cb35eb8373c742421915bb431aa/AndroidManifest.xml:5:5-7:41
MERGED from [com.facebook.fresco:imagepipeline-okhttp3:2.0.0] /home/ashok/.gradle/caches/transforms-2/files-2.1/b34d0442ae80bf49d86e5c5433d6d54e/AndroidManifest.xml:5:5-7:41
MERGED from [com.facebook.fresco:imagepipeline-okhttp3:2.0.0] /home/ashok/.gradle/caches/transforms-2/files-2.1/b34d0442ae80bf49d86e5c5433d6d54e/AndroidManifest.xml:5:5-7:41
MERGED from [com.facebook.fresco:animated-base:2.0.0] /home/ashok/.gradle/caches/transforms-2/files-2.1/72e239b1ecd1a14c180a4578c073c5ec/AndroidManifest.xml:5:5-7:41
MERGED from [com.facebook.fresco:animated-base:2.0.0] /home/ashok/.gradle/caches/transforms-2/files-2.1/72e239b1ecd1a14c180a4578c073c5ec/AndroidManifest.xml:5:5-7:41
MERGED from [com.facebook.fresco:animated-drawable:2.0.0] /home/ashok/.gradle/caches/transforms-2/files-2.1/f260098a10f51f565c29c59fdf0839d6/AndroidManifest.xml:5:5-7:41
MERGED from [com.facebook.fresco:animated-drawable:2.0.0] /home/ashok/.gradle/caches/transforms-2/files-2.1/f260098a10f51f565c29c59fdf0839d6/AndroidManifest.xml:5:5-7:41
MERGED from [com.facebook.fresco:drawee:2.0.0] /home/ashok/.gradle/caches/transforms-2/files-2.1/5cfd3a934f55df6b454c9bc9239cc589/AndroidManifest.xml:5:5-7:41
MERGED from [com.facebook.fresco:drawee:2.0.0] /home/ashok/.gradle/caches/transforms-2/files-2.1/5cfd3a934f55df6b454c9bc9239cc589/AndroidManifest.xml:5:5-7:41
MERGED from [com.facebook.fresco:nativeimagefilters:2.0.0] /home/ashok/.gradle/caches/transforms-2/files-2.1/361a02530ffd97955cfc35342f885a19/AndroidManifest.xml:5:5-7:41
MERGED from [com.facebook.fresco:nativeimagefilters:2.0.0] /home/ashok/.gradle/caches/transforms-2/files-2.1/361a02530ffd97955cfc35342f885a19/AndroidManifest.xml:5:5-7:41
MERGED from [com.facebook.fresco:imagepipeline:2.0.0] /home/ashok/.gradle/caches/transforms-2/files-2.1/d4d0d0f3ee61dc3076c28fd6a41c42a2/AndroidManifest.xml:5:5-7:41
MERGED from [com.facebook.fresco:imagepipeline:2.0.0] /home/ashok/.gradle/caches/transforms-2/files-2.1/d4d0d0f3ee61dc3076c28fd6a41c42a2/AndroidManifest.xml:5:5-7:41
MERGED from [com.facebook.fresco:nativeimagetranscoder:2.0.0] /home/ashok/.gradle/caches/transforms-2/files-2.1/68e9eba7aba68aac3962628caed88441/AndroidManifest.xml:5:5-7:41
MERGED from [com.facebook.fresco:nativeimagetranscoder:2.0.0] /home/ashok/.gradle/caches/transforms-2/files-2.1/68e9eba7aba68aac3962628caed88441/AndroidManifest.xml:5:5-7:41
MERGED from [com.facebook.fresco:imagepipeline-base:2.0.0] /home/ashok/.gradle/caches/transforms-2/files-2.1/eb49e24fc2c5a7f318e1f14042e2270d/AndroidManifest.xml:5:5-7:41
MERGED from [com.facebook.fresco:imagepipeline-base:2.0.0] /home/ashok/.gradle/caches/transforms-2/files-2.1/eb49e24fc2c5a7f318e1f14042e2270d/AndroidManifest.xml:5:5-7:41
MERGED from [com.facebook.soloader:soloader:0.6.0] /home/ashok/.gradle/caches/transforms-2/files-2.1/fed405e112db2173db441fd0f9ca236a/AndroidManifest.xml:7:5-9:41
MERGED from [com.facebook.soloader:soloader:0.6.0] /home/ashok/.gradle/caches/transforms-2/files-2.1/fed405e112db2173db441fd0f9ca236a/AndroidManifest.xml:7:5-9:41
MERGED from [com.facebook.fresco:fbcore:2.0.0] /home/ashok/.gradle/caches/transforms-2/files-2.1/287e078d634f64a02db3aae9768c3668/AndroidManifest.xml:5:5-7:41
MERGED from [com.facebook.fresco:fbcore:2.0.0] /home/ashok/.gradle/caches/transforms-2/files-2.1/287e078d634f64a02db3aae9768c3668/AndroidManifest.xml:5:5-7:41
MERGED from [androidx.recyclerview:recyclerview:1.0.0] /home/ashok/.gradle/caches/transforms-2/files-2.1/78e7016bc053784315797c9acd9833be/AndroidManifest.xml:20:5-44
MERGED from [androidx.recyclerview:recyclerview:1.0.0] /home/ashok/.gradle/caches/transforms-2/files-2.1/78e7016bc053784315797c9acd9833be/AndroidManifest.xml:20:5-44
MERGED from [androidx.legacy:legacy-support-core-ui:1.0.0] /home/ashok/.gradle/caches/transforms-2/files-2.1/9d3eca9261655cebb0bfb6cf7fcbf99b/AndroidManifest.xml:20:5-44
MERGED from [androidx.legacy:legacy-support-core-ui:1.0.0] /home/ashok/.gradle/caches/transforms-2/files-2.1/9d3eca9261655cebb0bfb6cf7fcbf99b/AndroidManifest.xml:20:5-44
MERGED from [androidx.coordinatorlayout:coordinatorlayout:1.0.0] /home/ashok/.gradle/caches/transforms-2/files-2.1/a061277c1a97673e24686f2d515d4c50/AndroidManifest.xml:20:5-44
MERGED from [androidx.coordinatorlayout:coordinatorlayout:1.0.0] /home/ashok/.gradle/caches/transforms-2/files-2.1/a061277c1a97673e24686f2d515d4c50/AndroidManifest.xml:20:5-44
MERGED from [androidx.fragment:fragment:1.1.0] /home/ashok/.gradle/caches/transforms-2/files-2.1/b5a5a4ef906990f205bf73e2814f766c/AndroidManifest.xml:20:5-22:41
MERGED from [androidx.fragment:fragment:1.1.0] /home/ashok/.gradle/caches/transforms-2/files-2.1/b5a5a4ef906990f205bf73e2814f766c/AndroidManifest.xml:20:5-22:41
MERGED from [androidx.appcompat:appcompat-resources:1.1.0] /home/ashok/.gradle/caches/transforms-2/files-2.1/86652dfba4bf4ae8be819779aeb82c84/AndroidManifest.xml:20:5-22:41
MERGED from [androidx.appcompat:appcompat-resources:1.1.0] /home/ashok/.gradle/caches/transforms-2/files-2.1/86652dfba4bf4ae8be819779aeb82c84/AndroidManifest.xml:20:5-22:41
MERGED from [androidx.drawerlayout:drawerlayout:1.0.0] /home/ashok/.gradle/caches/transforms-2/files-2.1/f7f11468e9d9fe9e54ece7ff9b614c39/AndroidManifest.xml:20:5-44
MERGED from [androidx.drawerlayout:drawerlayout:1.0.0] /home/ashok/.gradle/caches/transforms-2/files-2.1/f7f11468e9d9fe9e54ece7ff9b614c39/AndroidManifest.xml:20:5-44
MERGED from [androidx.viewpager:viewpager:1.0.0] /home/ashok/.gradle/caches/transforms-2/files-2.1/221e9c6c04830e4a3fbe87a950ff9fd2/AndroidManifest.xml:20:5-44
MERGED from [androidx.viewpager:viewpager:1.0.0] /home/ashok/.gradle/caches/transforms-2/files-2.1/221e9c6c04830e4a3fbe87a950ff9fd2/AndroidManifest.xml:20:5-44
MERGED from [androidx.slidingpanelayout:slidingpanelayout:1.0.0] /home/ashok/.gradle/caches/transforms-2/files-2.1/18093969b9fdc7ae3e5115dc124a2236/AndroidManifest.xml:20:5-44
MERGED from [androidx.slidingpanelayout:slidingpanelayout:1.0.0] /home/ashok/.gradle/caches/transforms-2/files-2.1/18093969b9fdc7ae3e5115dc124a2236/AndroidManifest.xml:20:5-44
MERGED from [androidx.customview:customview:1.0.0] /home/ashok/.gradle/caches/transforms-2/files-2.1/3b7e498d08e3909fc436e60b340aed18/AndroidManifest.xml:20:5-44
MERGED from [androidx.customview:customview:1.0.0] /home/ashok/.gradle/caches/transforms-2/files-2.1/3b7e498d08e3909fc436e60b340aed18/AndroidManifest.xml:20:5-44
MERGED from [androidx.legacy:legacy-support-core-utils:1.0.0] /home/ashok/.gradle/caches/transforms-2/files-2.1/0494478bac380fe4834d06045fa2f8f1/AndroidManifest.xml:20:5-44
MERGED from [androidx.legacy:legacy-support-core-utils:1.0.0] /home/ashok/.gradle/caches/transforms-2/files-2.1/0494478bac380fe4834d06045fa2f8f1/AndroidManifest.xml:20:5-44
MERGED from [androidx.transition:transition:1.0.0] /home/ashok/.gradle/caches/transforms-2/files-2.1/603d00d036076c94533466b817053963/AndroidManifest.xml:20:5-44
MERGED from [androidx.transition:transition:1.0.0] /home/ashok/.gradle/caches/transforms-2/files-2.1/603d00d036076c94533466b817053963/AndroidManifest.xml:20:5-44
MERGED from [androidx.loader:loader:1.0.0] /home/ashok/.gradle/caches/transforms-2/files-2.1/dfa685b6b67a0fb23a6e18ae85e25345/AndroidManifest.xml:20:5-44
MERGED from [androidx.loader:loader:1.0.0] /home/ashok/.gradle/caches/transforms-2/files-2.1/dfa685b6b67a0fb23a6e18ae85e25345/AndroidManifest.xml:20:5-44
MERGED from [androidx.activity:activity:1.0.0] /home/ashok/.gradle/caches/transforms-2/files-2.1/36a36f52dc821629b277f1f8fd532488/AndroidManifest.xml:20:5-22:41
MERGED from [androidx.activity:activity:1.0.0] /home/ashok/.gradle/caches/transforms-2/files-2.1/36a36f52dc821629b277f1f8fd532488/AndroidManifest.xml:20:5-22:41
MERGED from [androidx.vectordrawable:vectordrawable-animated:1.1.0] /home/ashok/.gradle/caches/transforms-2/files-2.1/b519f22660ed050343b3acec5d4fc9cb/AndroidManifest.xml:20:5-22:41
MERGED from [androidx.vectordrawable:vectordrawable-animated:1.1.0] /home/ashok/.gradle/caches/transforms-2/files-2.1/b519f22660ed050343b3acec5d4fc9cb/AndroidManifest.xml:20:5-22:41
MERGED from [androidx.vectordrawable:vectordrawable:1.1.0] /home/ashok/.gradle/caches/transforms-2/files-2.1/db997f525d72d91be759aa78509dabb7/AndroidManifest.xml:20:5-22:41
MERGED from [androidx.vectordrawable:vectordrawable:1.1.0] /home/ashok/.gradle/caches/transforms-2/files-2.1/db997f525d72d91be759aa78509dabb7/AndroidManifest.xml:20:5-22:41
MERGED from [androidx.swiperefreshlayout:swiperefreshlayout:1.0.0] /home/ashok/.gradle/caches/transforms-2/files-2.1/48521c4c99b838b50cfbf78bfbaa521e/AndroidManifest.xml:20:5-44
MERGED from [androidx.swiperefreshlayout:swiperefreshlayout:1.0.0] /home/ashok/.gradle/caches/transforms-2/files-2.1/48521c4c99b838b50cfbf78bfbaa521e/AndroidManifest.xml:20:5-44
MERGED from [androidx.asynclayoutinflater:asynclayoutinflater:1.0.0] /home/ashok/.gradle/caches/transforms-2/files-2.1/b98e9c16774d4d319880800d55978d1f/AndroidManifest.xml:20:5-44
MERGED from [androidx.asynclayoutinflater:asynclayoutinflater:1.0.0] /home/ashok/.gradle/caches/transforms-2/files-2.1/b98e9c16774d4d319880800d55978d1f/AndroidManifest.xml:20:5-44
MERGED from [androidx.core:core:1.1.0] /home/ashok/.gradle/caches/transforms-2/files-2.1/c6269447438be640c65b2574db6bfcde/AndroidManifest.xml:20:5-22:41
MERGED from [androidx.core:core:1.1.0] /home/ashok/.gradle/caches/transforms-2/files-2.1/c6269447438be640c65b2574db6bfcde/AndroidManifest.xml:20:5-22:41
MERGED from [androidx.cursoradapter:cursoradapter:1.0.0] /home/ashok/.gradle/caches/transforms-2/files-2.1/f89c03a5ceae21e89fd5bc7f1cf32c63/AndroidManifest.xml:20:5-44
MERGED from [androidx.cursoradapter:cursoradapter:1.0.0] /home/ashok/.gradle/caches/transforms-2/files-2.1/f89c03a5ceae21e89fd5bc7f1cf32c63/AndroidManifest.xml:20:5-44
MERGED from [androidx.cardview:cardview:1.0.0] /home/ashok/.gradle/caches/transforms-2/files-2.1/249fc499ae7a4d9f7ffbc19e3f35ff95/AndroidManifest.xml:20:5-44
MERGED from [androidx.cardview:cardview:1.0.0] /home/ashok/.gradle/caches/transforms-2/files-2.1/249fc499ae7a4d9f7ffbc19e3f35ff95/AndroidManifest.xml:20:5-44
MERGED from [androidx.versionedparcelable:versionedparcelable:1.1.0] /home/ashok/.gradle/caches/transforms-2/files-2.1/8581e5b86e944c7924af56b127167599/AndroidManifest.xml:20:5-22:41
MERGED from [androidx.versionedparcelable:versionedparcelable:1.1.0] /home/ashok/.gradle/caches/transforms-2/files-2.1/8581e5b86e944c7924af56b127167599/AndroidManifest.xml:20:5-22:41
MERGED from [androidx.interpolator:interpolator:1.0.0] /home/ashok/.gradle/caches/transforms-2/files-2.1/a38e4d6222ca442d8f181bc29aa7da2e/AndroidManifest.xml:20:5-44
MERGED from [androidx.interpolator:interpolator:1.0.0] /home/ashok/.gradle/caches/transforms-2/files-2.1/a38e4d6222ca442d8f181bc29aa7da2e/AndroidManifest.xml:20:5-44
MERGED from [androidx.documentfile:documentfile:1.0.0] /home/ashok/.gradle/caches/transforms-2/files-2.1/8c90ed3d9cb92ccd8f4191ee3bc4a47e/AndroidManifest.xml:20:5-44
MERGED from [androidx.documentfile:documentfile:1.0.0] /home/ashok/.gradle/caches/transforms-2/files-2.1/8c90ed3d9cb92ccd8f4191ee3bc4a47e/AndroidManifest.xml:20:5-44
MERGED from [androidx.localbroadcastmanager:localbroadcastmanager:1.0.0] /home/ashok/.gradle/caches/transforms-2/files-2.1/b9a0243011d6e8da64f54cf39bf668e4/AndroidManifest.xml:20:5-44
MERGED from [androidx.localbroadcastmanager:localbroadcastmanager:1.0.0] /home/ashok/.gradle/caches/transforms-2/files-2.1/b9a0243011d6e8da64f54cf39bf668e4/AndroidManifest.xml:20:5-44
MERGED from [androidx.print:print:1.0.0] /home/ashok/.gradle/caches/transforms-2/files-2.1/e376fd76488c538ab34996681b9e916c/AndroidManifest.xml:20:5-44
MERGED from [androidx.print:print:1.0.0] /home/ashok/.gradle/caches/transforms-2/files-2.1/e376fd76488c538ab34996681b9e916c/AndroidManifest.xml:20:5-44
MERGED from [androidx.lifecycle:lifecycle-runtime:2.1.0] /home/ashok/.gradle/caches/transforms-2/files-2.1/9dd7a686597af0cb91df4cd3138796e2/AndroidManifest.xml:20:5-44
MERGED from [androidx.lifecycle:lifecycle-runtime:2.1.0] /home/ashok/.gradle/caches/transforms-2/files-2.1/9dd7a686597af0cb91df4cd3138796e2/AndroidManifest.xml:20:5-44
MERGED from [androidx.lifecycle:lifecycle-viewmodel:2.1.0] /home/ashok/.gradle/caches/transforms-2/files-2.1/354e87983eef3b14ae51e801e6b724ca/AndroidManifest.xml:20:5-44
MERGED from [androidx.lifecycle:lifecycle-viewmodel:2.1.0] /home/ashok/.gradle/caches/transforms-2/files-2.1/354e87983eef3b14ae51e801e6b724ca/AndroidManifest.xml:20:5-44
MERGED from [androidx.savedstate:savedstate:1.0.0] /home/ashok/.gradle/caches/transforms-2/files-2.1/f0f7851045ddb7f9e828c226f18f8e1b/AndroidManifest.xml:20:5-22:41
MERGED from [androidx.savedstate:savedstate:1.0.0] /home/ashok/.gradle/caches/transforms-2/files-2.1/f0f7851045ddb7f9e828c226f18f8e1b/AndroidManifest.xml:20:5-22:41
MERGED from [androidx.lifecycle:lifecycle-livedata:2.0.0] /home/ashok/.gradle/caches/transforms-2/files-2.1/0e5e1c6559726908357093df15051898/AndroidManifest.xml:20:5-44
MERGED from [androidx.lifecycle:lifecycle-livedata:2.0.0] /home/ashok/.gradle/caches/transforms-2/files-2.1/0e5e1c6559726908357093df15051898/AndroidManifest.xml:20:5-44
MERGED from [androidx.lifecycle:lifecycle-livedata-core:2.0.0] /home/ashok/.gradle/caches/transforms-2/files-2.1/3bdfedfdff62f963c82c55a0892128a8/AndroidManifest.xml:20:5-44
MERGED from [androidx.lifecycle:lifecycle-livedata-core:2.0.0] /home/ashok/.gradle/caches/transforms-2/files-2.1/3bdfedfdff62f963c82c55a0892128a8/AndroidManifest.xml:20:5-44
MERGED from [androidx.arch.core:core-runtime:2.0.0] /home/ashok/.gradle/caches/transforms-2/files-2.1/58896f4eb8583f71fbedb390224704cd/AndroidManifest.xml:20:5-44
MERGED from [androidx.arch.core:core-runtime:2.0.0] /home/ashok/.gradle/caches/transforms-2/files-2.1/58896f4eb8583f71fbedb390224704cd/AndroidManifest.xml:20:5-44
INJECTED from /home/ashok/Documents/mrunalwork/giphy-demo/android/app/src/debug/AndroidManifest.xml
INJECTED from /home/ashok/Documents/mrunalwork/giphy-demo/android/app/src/debug/AndroidManifest.xml
	android:targetSdkVersion
		INJECTED from /home/ashok/Documents/mrunalwork/giphy-demo/android/app/src/main/AndroidManifest.xml
		INJECTED from /home/ashok/Documents/mrunalwork/giphy-demo/android/app/src/debug/AndroidManifest.xml
	android:minSdkVersion
		INJECTED from /home/ashok/Documents/mrunalwork/giphy-demo/android/app/src/main/AndroidManifest.xml
		INJECTED from /home/ashok/Documents/mrunalwork/giphy-demo/android/app/src/debug/AndroidManifest.xml
uses-permission#android.permission.SYSTEM_ALERT_WINDOW
ADDED from /home/ashok/Documents/mrunalwork/giphy-demo/android/app/src/debug/AndroidManifest.xml:5:5-77
	android:name
		ADDED from /home/ashok/Documents/mrunalwork/giphy-demo/android/app/src/debug/AndroidManifest.xml:5:22-75
